"Environment","Trait","Pearson","SE_Pearson","MAAPE","SE_MAAPE","MSE","SE_MSE","dataset"
"1","AvePlantHeight",0.6087,0.0444,0.2596,0.0054,112.9498,3.0884,"Chickpea_data.RData"
"1","Biomass",0.2432,0.0504,0.2841,0.0111,5644.9982,349.4795,"Chickpea_data.RData"
"1","Daysto50Flower",0.8396,0.0146,0.2638,0.0054,111.9231,2.6126,"Chickpea_data.RData"
"1","DaystoMaturity",0.4718,0.0444,0.0418,0.0014,21.1636,1.3868,"Chickpea_data.RData"
"1","PlantStand",0.212,0.0387,0.866,0.0047,179.3019,3.2796,"Chickpea_data.RData"
"2","AvePlantHeight",0.4217,0.0247,0.183,0.0043,164.3697,9.4149,"Chickpea_data.RData"
"2","Biomass",0.3027,0.0602,0.2357,0.0064,15547.1917,2619.6562,"Chickpea_data.RData"
"2","Daysto50Flower",0.6581,0.0497,0.2424,0.0067,522.2359,35.2565,"Chickpea_data.RData"
"2","DaystoMaturity",-0.0936,0.0354,0.2968,8e-04,2216.3902,15.419,"Chickpea_data.RData"
"2","PlantStand",0.089,0.0646,0.6291,0.004,4530.1305,115.4136,"Chickpea_data.RData"
"4","AvePlantHeight",0.5936,0.0218,0.0861,9e-04,36.5833,1.9289,"Chickpea_data.RData"
"4","Biomass",0.4971,0.0176,0.1768,0.0119,2224.2408,251.722,"Chickpea_data.RData"
"4","Daysto50Flower",0.6849,0.0203,0.1633,0.004,57.3924,1.8236,"Chickpea_data.RData"
"4","DaystoMaturity",0.6552,0.0138,0.1469,0.0018,200.7746,4.1467,"Chickpea_data.RData"
"4","PlantStand",0.0201,0.0363,0.9244,0.0076,203.6751,5.9482,"Chickpea_data.RData"
"5","AvePlantHeight",0.4761,0.0503,0.1911,0.0049,68.6917,2.6375,"Chickpea_data.RData"
"5","Biomass",0.2045,0.0378,0.1211,0.0037,1514.0792,90.5239,"Chickpea_data.RData"
"5","Daysto50Flower",0.6053,0.0156,0.0932,0.0038,23.9568,1.1913,"Chickpea_data.RData"
"5","DaystoMaturity",0.477,0.0512,0.1745,0.0016,266.1721,3.3616,"Chickpea_data.RData"
"5","PlantStand",0.0795,0.0369,0.7505,0.0132,144.9888,6.1028,"Chickpea_data.RData"
"6","AvePlantHeight",0.0712,0.0895,0.1462,0.0045,108.217,6.447,"Chickpea_data.RData"
"6","Biomass",-0.0616,0.0593,0.2145,0.0074,8593.6278,761.1849,"Chickpea_data.RData"
"6","Daysto50Flower",-0.005,0.0709,0.1143,0.0042,51.889,2.8113,"Chickpea_data.RData"
"6","DaystoMaturity",0.0235,0.0822,0.0312,0.0013,16.5127,1.2519,"Chickpea_data.RData"
"6","PlantStand",-0.037,0.0653,0.8455,0.0074,177.4873,4.4611,"Chickpea_data.RData"
"7","AvePlantHeight",0.5817,0.053,0.1768,0.0062,58.9844,3.4205,"Chickpea_data.RData"
"7","Biomass",0.1511,0.0251,0.4479,0.0137,8327.3494,396.6634,"Chickpea_data.RData"
"7","Daysto50Flower",0.6458,0.0255,0.0789,0.0074,22.0465,3.826,"Chickpea_data.RData"
"7","DaystoMaturity",0.6351,0.0223,0.1517,0.0012,207.7508,2.7544,"Chickpea_data.RData"
"7","PlantStand",0.0561,0.0336,0.8729,0.0059,184.946,3.9708,"Chickpea_data.RData"
"ALIYARNAGAR_R15","NPP",0.4162,0.0306,0.2532,0.0048,22.4651,2.6302,"Groundnut_data.RData"
"ALIYARNAGAR_R15","PYPP",0.2995,0.0118,0.2503,0.0065,15.7697,2.3799,"Groundnut_data.RData"
"ALIYARNAGAR_R15","SYPP",0.2925,0.0235,0.2579,0.0077,6.3596,0.8807,"Groundnut_data.RData"
"ALIYARNAGAR_R15","YPH",0.5551,0.0422,0.3848,0.0147,363320.3958,32578.4887,"Groundnut_data.RData"
"ICRISAT_PR15-16","NPP",0.4112,0.0861,0.4529,0.0148,28.4365,1.4098,"Groundnut_data.RData"
"ICRISAT_PR15-16","PYPP",0.2761,0.078,0.5304,0.0191,18.0751,0.7602,"Groundnut_data.RData"
"ICRISAT_PR15-16","SYPP",0.2907,0.0937,0.538,0.0174,6.4803,0.1513,"Groundnut_data.RData"
"ICRISAT_PR15-16","YPH",0.306,0.0696,0.376,0.0109,572819.6739,62321.4097,"Groundnut_data.RData"
"ICRISAT_R15","NPP",0.6206,0.0274,0.2292,0.0081,16.3289,1.583,"Groundnut_data.RData"
"ICRISAT_R15","PYPP",0.6018,0.0291,0.2411,0.0108,10.4562,1.1978,"Groundnut_data.RData"
"ICRISAT_R15","SYPP",0.5823,0.0237,0.259,0.0097,3.8839,0.4094,"Groundnut_data.RData"
"ICRISAT_R15","YPH",0.7079,0.0246,0.2741,0.0093,240769.3173,10858.2577,"Groundnut_data.RData"
"JALGOAN_R15","NPP",0.576,0.0412,0.2606,0.0119,30.4087,2.7793,"Groundnut_data.RData"
"JALGOAN_R15","PYPP",0.494,0.0561,0.2898,0.0196,14.9956,2.0708,"Groundnut_data.RData"
"JALGOAN_R15","SYPP",0.4921,0.0541,0.3124,0.0171,5.9092,0.6264,"Groundnut_data.RData"
"JALGOAN_R15","YPH",0.5876,0.0524,0.3172,0.0114,429544.0444,30454.462,"Groundnut_data.RData"
"Nanchong_2017","HundPW2",0.8898,0.0106,0.1025,0.0013,734.5292,58.1273,"Peanut_Data.RData"
"Nanchong_2017","PodLength",0.9085,0.0101,0.0637,0.0026,5.767,0.3118,"Peanut_Data.RData"
"Nanchong_2017","PodWidth",0.8616,0.0089,0.0456,0.0014,0.7861,0.0502,"Peanut_Data.RData"
"Nanchong_2017","SeedLength",0.9471,0.005,0.0379,0.0027,0.6173,0.066,"Peanut_Data.RData"
"Nanchong_2017","SeedWidth",0.8668,0.0109,0.0722,0.0022,0.8139,0.0494,"Peanut_Data.RData"
"Shijiazhuang_2017","HundPW2",0.8275,0.0147,0.1111,0.004,532.2996,35.4822,"Peanut_Data.RData"
"Shijiazhuang_2017","PodLength",0.8866,0.0137,0.0518,0.003,5.539,0.6402,"Peanut_Data.RData"
"Shijiazhuang_2017","PodWidth",0.8543,0.0241,0.0504,0.0021,1.1851,0.1109,"Peanut_Data.RData"
"Shijiazhuang_2017","SeedLength",0.9217,0.0154,0.0457,0.0025,0.9385,0.1291,"Peanut_Data.RData"
"Shijiazhuang_2017","SeedWidth",0.7875,0.0186,0.0538,0.0015,0.3395,0.017,"Peanut_Data.RData"
"Wuhan_2017","HundPW2",0.888,0.009,0.1548,0.0039,1614.496,73.9192,"Peanut_Data.RData"
"Wuhan_2017","PodLength",0.9373,0.003,0.038,0.0016,3.0474,0.2274,"Peanut_Data.RData"
"Wuhan_2017","PodWidth",0.9115,0.0064,0.0428,0.0026,0.7486,0.0893,"Peanut_Data.RData"
"Wuhan_2017","SeedLength",0.9457,0.0064,0.0452,0.0015,0.9289,0.0984,"Peanut_Data.RData"
"Wuhan_2017","SeedWidth",0.8744,0.0088,0.0701,0.0036,0.7506,0.0661,"Peanut_Data.RData"
"Zhanjiang_201701","HundPW2",0.8122,0.0193,0.1071,0.0032,483.2837,22.7452,"Peanut_Data.RData"
"Zhanjiang_201701","PodLength",0.9068,0.0126,0.0407,0.0026,4.0217,0.6171,"Peanut_Data.RData"
"Zhanjiang_201701","PodWidth",0.8854,0.0106,0.0363,0.0017,0.5452,0.0594,"Peanut_Data.RData"
"Zhanjiang_201701","SeedLength",0.9364,0.0029,0.0409,0.0027,0.7167,0.0546,"Peanut_Data.RData"
"Zhanjiang_201701","SeedWidth",0.6875,0.0287,0.0514,9e-04,0.355,0.0176,"Peanut_Data.RData"
"Zhanjiang_201702","HundPW2",0.7672,0.0304,0.2562,0.008,1695.9272,95.7538,"Peanut_Data.RData"
"Zhanjiang_201702","PodLength",0.9205,0.011,0.0405,0.0018,2.9053,0.2186,"Peanut_Data.RData"
"Zhanjiang_201702","PodWidth",0.9086,0.0136,0.0463,0.0034,0.7102,0.0844,"Peanut_Data.RData"
"Zhanjiang_201702","SeedLength",0.9334,0.0068,0.0506,0.0019,0.9976,0.1121,"Peanut_Data.RData"
"Zhanjiang_201702","SeedWidth",0.6271,0.037,0.1178,0.0035,1.2771,0.0611,"Peanut_Data.RData"
