Env,Trait,Cor_mean,Cor_sd,MSEP_mean,MSEP_sd,dataset
Flat5IR,DTHD,0.767648106131652,0.039651670209046,8.58636906911369,0.707539132501024,Data_EYT_Set_4.RData
Flat5IR,DTMT,0.714759010768139,0.03236529499932,8.88142598225867,0.881601351758335,Data_EYT_Set_4.RData
Flat5IR,GY,0.34210914504419,0.080512374256798,0.316540422891516,0.037255011621925,Data_EYT_Set_4.RData
Flat5IR,Height,0.542007492146408,0.024523350710376,14.1508257798362,1.43144298240058,Data_EYT_Set_4.RData
LHT,DTHD,0.833971851904925,0.020622051339417,5.99026539011221,0.368837383709918,Data_EYT_Set_4.RData
LHT,DTMT,0.783193275187311,0.025764457034727,7.7685729751491,1.15508465197085,Data_EYT_Set_4.RData
LHT,GY,0.158247615052732,0.090818571844331,0.194282952838528,0.038358268479486,Data_EYT_Set_4.RData
LHT,Height,0.402512700229834,0.05365809293578,27.3332753247621,2.48259379656613,Data_EYT_Set_4.RData
Bed5IR,DTHD,0.855829837297742,0.004953977585157,14.9371090057231,1.8167902651658,Data_EYT_Set_4.RData
Bed5IR,DTMT,0.817626082596861,0.013463701639119,11.583630934423,1.47290511580421,Data_EYT_Set_4.RData
Bed5IR,GY,0.473564367882977,0.047482536534377,0.161967457674885,0.014663647403793,Data_EYT_Set_4.RData
Bed5IR,Height,0.57831779373808,0.028686017213801,11.7080879845129,1.67369340644209,Data_EYT_Set_4.RData
EHT,DTHD,0.80343892448673,0.031704531152043,31.2959168502512,3.69701736357645,Data_EYT_Set_4.RData
EHT,DTMT,0.799178041414842,0.044066578964295,26.2210365392038,2.04747947969646,Data_EYT_Set_4.RData
EHT,GY,0.443581929042053,0.048005094149493,0.312699861007159,0.053572841014667,Data_EYT_Set_4.RData
EHT,Height,0.457228357192683,0.08551511534326,24.2671255997417,2.52821169032231,Data_EYT_Set_4.RData
Flat5IR,DTHD,0.814876438503984,0.031783346570384,4.32212268744755,0.624483125044333,Data_EYT_Set_5.RData
Flat5IR,DTMT,0.787320487380165,0.033127275384568,4.98396208516257,0.749077707844323,Data_EYT_Set_5.RData
Flat5IR,GY,0.570902489250007,0.068242424978671,0.177972197801902,0.00931759246727,Data_EYT_Set_5.RData
Flat5IR,Height,0.635489810358848,0.038464609343612,9.56201898904532,2.08209432429837,Data_EYT_Set_5.RData
EHT,DTHD,0.782632844830352,0.040682105618351,16.1722937794267,3.45934428132442,Data_EYT_Set_5.RData
EHT,DTMT,0.739211167427162,0.028254643488054,12.8850486927869,2.95285218473487,Data_EYT_Set_5.RData
EHT,GY,0.527861028916215,0.030395455286245,0.319063610385829,0.071185656798243,Data_EYT_Set_5.RData
EHT,Height,0.562399057958329,0.060068175047653,17.8944516795027,2.58630207401188,Data_EYT_Set_5.RData
Bed5IR,DTHD,0.843202754419195,0.031769249697122,7.67296577757136,0.564928274984673,Data_EYT_Set_5.RData
Bed5IR,DTMT,0.846139305509741,0.031612661058318,6.30107151705592,0.513804186219749,Data_EYT_Set_5.RData
Bed5IR,GY,0.674643715012554,0.021072371882269,0.119448585138425,0.022582198437016,Data_EYT_Set_5.RData
Bed5IR,Height,0.471141320354649,0.078344048500843,18.7446807388779,1.86270919797671,Data_EYT_Set_5.RData
Bed2IR,DTHD,0.891388590477858,0.020700639609413,2.6487542646759,0.260233906265952,Data_EYT_Set_5.RData
Bed2IR,DTMT,0.766304901611595,0.050164825508707,4.78516936794654,0.78259882862926,Data_EYT_Set_5.RData
Bed2IR,GY,0.444136388558745,0.054784592551657,0.118163386894659,0.005386085978903,Data_EYT_Set_5.RData
Bed2IR,Height,0.485835408241908,0.055940384643133,22.4244102116062,2.84699664923894,Data_EYT_Set_5.RData
LHT,DTHD,0.811746782446473,0.037590022353393,4.30246016965629,0.811251559176368,Data_EYT_Set_5.RData
LHT,DTMT,0.783408580676882,0.023695896881228,3.87450978544357,0.453762492665142,Data_EYT_Set_5.RData
LHT,GY,0.382667985730951,0.087873875753423,0.225325401572643,0.030079039336848,Data_EYT_Set_5.RData
LHT,Height,0.497797115576303,0.078757356619794,19.0598563265234,2.84744350586021,Data_EYT_Set_5.RData
Bed5IR,DTHD,0.790883696413489,0.023401269389632,5.39794726584587,0.646875074762909,Data_EYT_Set_6.RData
Bed5IR,DTMT,0.765991496166314,0.032459034084701,5.529899315463,0.533187941186566,Data_EYT_Set_6.RData
Bed5IR,GY,0.361537030423421,0.052760945459634,0.12156615737187,0.009703014397649,Data_EYT_Set_6.RData
Bed5IR,Height,0.412497575376872,0.063569333722311,14.9503371330272,1.15162264966227,Data_EYT_Set_6.RData
Bed2IR,DTHD,0.879657000829921,0.0145408689762,2.1032477047577,0.266164030952047,Data_EYT_Set_6.RData
Bed2IR,DTMT,0.79840953024489,0.033167961201104,2.88371527472189,0.088853444361622,Data_EYT_Set_6.RData
Bed2IR,GY,0.467946932752233,0.044471540069277,0.07623120858074,0.006932392981218,Data_EYT_Set_6.RData
Bed2IR,Height,0.471425855984889,0.072986521712093,21.4528621339623,1.07036564203403,Data_EYT_Set_6.RData
LHT,DTHD,0.769322352725003,0.01605795458255,4.15115931535075,0.336667638362625,Data_EYT_Set_6.RData
LHT,DTMT,0.624641396647532,0.050781841534004,4.04787975898843,0.509316509593143,Data_EYT_Set_6.RData
LHT,GY,0.211495556435712,0.027345161899208,0.162591256423202,0.015919433817732,Data_EYT_Set_6.RData
LHT,Height,0.361382990655328,0.102489619959527,18.9088100252757,2.63877712517579,Data_EYT_Set_6.RData
FlatDrip,DTHD,0.840027500551373,0.019705233844216,7.6634671601589,1.17232526257938,Data_EYT_Set_6.RData
FlatDrip,DTMT,0.750334807073586,0.044632897741868,8.66363612046502,0.785352885734241,Data_EYT_Set_6.RData
FlatDrip,GY,0.466080469479428,0.058338249014042,0.173290004921797,0.018018991587249,Data_EYT_Set_6.RData
FlatDrip,Height,0.344947262712128,0.037149244686408,27.4169679349683,1.33197328730048,Data_EYT_Set_6.RData
Flat5IR,DTHD,0.768142612445041,0.014612746997567,4.2182338458723,0.298533051973785,Data_EYT_Set_6.RData
Flat5IR,DTMT,0.6359273721508,0.011279236755167,8.12837772789366,0.549814619173239,Data_EYT_Set_6.RData
Flat5IR,GY,0.234122968193786,0.065470736667368,0.225183659378776,0.071286611661801,Data_EYT_Set_6.RData
Flat5IR,Height,0.46125376173369,0.045715192100664,18.7987505352782,2.35943473923377,Data_EYT_Set_6.RData
EHT,DTHD,0.833935961209403,0.027711507964187,19.443609553516,1.86727200799816,Data_EYT_Set_7.RData
EHT,DTMT,0.826687734121521,0.032953615572942,10.0293804469593,0.848362096931552,Data_EYT_Set_7.RData
EHT,GY,0.470127189840215,0.041030353710066,0.329539785158839,0.046386689448736,Data_EYT_Set_7.RData
EHT,Height,0.16654653653343,0.027469305776517,30.9474643137465,2.13741182558959,Data_EYT_Set_7.RData
Flat5IR,DTHD,0.83261501049406,0.023806419806188,6.18908266731208,0.651774889940856,Data_EYT_Set_7.RData
Flat5IR,DTMT,0.909707462702262,0.026429992714517,5.34256763001256,0.894815883700709,Data_EYT_Set_7.RData
Flat5IR,GY,0.52831559283917,0.044838969446492,0.294643559807449,0.052940904509941,Data_EYT_Set_7.RData
Flat5IR,Height,0.388088968507578,0.09135102376585,21.2088213960639,2.22410673056442,Data_EYT_Set_7.RData
Bed5IR,DTHD,0.877169545652725,0.018173938150976,7.87088740561189,1.42619358780148,Data_EYT_Set_7.RData
Bed5IR,DTMT,0.90701122088205,0.01081568154184,5.72812978478153,0.764648534855681,Data_EYT_Set_7.RData
Bed5IR,GY,0.316415747182114,0.098162861839373,0.210040756346559,0.025205149851245,Data_EYT_Set_7.RData
Bed5IR,Height,0.350851854768702,0.10060013366949,22.8481502934772,3.08511614335522,Data_EYT_Set_7.RData
FlatDrip,DTHD,0.819516771391335,0.034445922628321,6.79928833741107,0.91012437567895,Data_EYT_Set_7.RData
FlatDrip,DTMT,0.733086671690294,0.038560486442402,10.1238261595539,1.10796697633964,Data_EYT_Set_7.RData
FlatDrip,GY,0.348234846962931,0.071615668162689,0.112200900208497,0.010910122068014,Data_EYT_Set_7.RData
FlatDrip,Height,0.347834051394277,0.045316474361694,62.3629468368516,2.90952760576075,Data_EYT_Set_7.RData
EBU,ASI,0.388665904343132,0.147325015270093,0.439928458390585,0.129827719528082,Data_Maize_Set_1.RData
EBU,PH,0.243693781698902,0.056775655051691,94.2287705517131,17.997256154759,Data_Maize_Set_1.RData
EBU,Yield,0.239036282978629,0.181166561282498,0.778376947065049,0.141093552813679,Data_Maize_Set_1.RData
KAK,ASI,0.391333180036739,0.121933211459653,0.874839059052463,0.227833688369143,Data_Maize_Set_1.RData
KAK,PH,0.294686129416788,0.09185345291206,129.088985675887,22.9306381728573,Data_Maize_Set_1.RData
KAK,Yield,0.236937318779492,0.142613944374296,0.483399936879126,0.082912856524694,Data_Maize_Set_1.RData
KTI,ASI,0.267521548379354,0.120623800603428,0.619659667607547,0.077944933008724,Data_Maize_Set_1.RData
KTI,PH,0.422755780568883,0.0712104052518,199.372088585773,66.3192653543457,Data_Maize_Set_1.RData
KTI,Yield,0.279101740198575,0.100070176262059,0.858288624314925,0.099210546055199,Data_Maize_Set_1.RData
D,DTH,0.538009155901683,0.037318021430283,43.3187853296088,1.83259095845912,Data_Wheat_Iranian_Set_3.RData
D,DTM,0.447288638291704,0.049735630507666,55.4578479197514,3.82140075991112,Data_Wheat_Iranian_Set_3.RData
H,DTH,0.499385815507493,0.039168355574703,23.8072492413604,1.42701717399535,Data_Wheat_Iranian_Set_3.RData
H,DTM,0.452189433421836,0.047514669203907,21.0408254506884,0.945189721733863,Data_Wheat_Iranian_Set_3.RData
Bed2IR,DTHD,0.916053887072336,0.031965100737147,7.32805587671741,4.27767268281552,Data_Wheat_Set_2.RData
Bed2IR,PTHT,0.692230562414576,0.069782567038017,23.8092545047364,3.57416870698964,Data_Wheat_Set_2.RData
Bed5IR,DTHD,0.859848894324137,0.090842735654494,14.2105421077813,4.16295015375515,Data_Wheat_Set_2.RData
Bed5IR,PTHT,-0.009172663268671,0.078077837163682,23.7220035699968,5.64057146184075,Data_Wheat_Set_2.RData
Drip,DTHD,0.923284081900163,0.010556838819988,5.47214552958258,0.744199428404869,Data_Wheat_Set_2.RData
Drip,PTHT,0.671867658021801,0.081113330046819,19.8678959030727,4.37503357208399,Data_Wheat_Set_2.RData
1,AvePlantHeight,0.650817222990595,0.052618492182456,18.3716829879565,1.3546923172831,Chickpea_data.RData
1,Daysto50Flower,0.847335685062821,0.016042288828978,9.75039480009006,1.24378829789227,Chickpea_data.RData
1,DaystoMaturity,0.473352810513226,0.032419945690617,3.49069172190585,0.088899990134083,Chickpea_data.RData
1,PlantStand,0.122497521867032,0.038219790662763,3.77287928958506,0.243858512146259,Chickpea_data.RData
2,AvePlantHeight,0.426970673092859,0.033528239476863,35.9215427560693,3.18581910954568,Chickpea_data.RData
2,Daysto50Flower,0.660481726900868,0.055548801169515,179.416354624349,19.4227753814308,Chickpea_data.RData
2,DaystoMaturity,-0.056261448979242,0.032000000527611,16.7402927716698,0.778038831871227,Chickpea_data.RData
2,PlantStand,0.076037098153208,0.033047615755152,192.051124845145,26.6714762205361,Chickpea_data.RData
4,AvePlantHeight,0.655423172813974,0.02878524443732,16.7145491888096,0.96853182768357,Chickpea_data.RData
4,Daysto50Flower,0.718809173509788,0.016209433489073,16.0355963641762,1.19860155414958,Chickpea_data.RData
4,DaystoMaturity,0.620037521430628,0.043921827001981,10.6722400547493,0.547812137077163,Chickpea_data.RData
4,PlantStand,0.011509993367053,0.083353290838653,5.23234549774079,0.582723164079675,Chickpea_data.RData
5,AvePlantHeight,0.584456061815169,0.050263308032626,13.1683091087092,1.1829528363931,Chickpea_data.RData
5,Daysto50Flower,0.632345553712305,0.019800204150538,11.0247939215483,0.151293432114998,Chickpea_data.RData
5,DaystoMaturity,0.598601788120839,0.033701834792105,7.64584937429651,0.357021905345192,Chickpea_data.RData
5,PlantStand,0.053182128827977,0.059648435733821,5.16936122908199,0.378957059968514,Chickpea_data.RData
6,AvePlantHeight,0.075707064267373,0.090797513998567,43.8653798858487,4.64736896452758,Chickpea_data.RData
6,Daysto50Flower,0.005817296529005,0.064096454103323,52.4114156517433,4.50834375237284,Chickpea_data.RData
6,DaystoMaturity,0.087878525552047,0.052238895327591,15.7143590625601,1.47416759498075,Chickpea_data.RData
6,PlantStand,0.011404178694506,0.034836869803632,6.31647502127238,0.368455685112055,Chickpea_data.RData
7,AvePlantHeight,0.622883813043755,0.050446529780936,9.28994648438006,0.830908925007629,Chickpea_data.RData
7,Daysto50Flower,0.678652925848976,0.033192124318194,20.4211047251026,3.87512591170616,Chickpea_data.RData
7,DaystoMaturity,0.66778440596525,0.03938930421296,6.75779920252308,1.25950729912119,Chickpea_data.RData
7,PlantStand,0.11578017189377,0.044429770806617,4.49760754957872,0.326071965727091,Chickpea_data.RData
ALIYARNAGAR_R15,NPP,0.42243810253062,0.029372372631807,21.9504104316484,2.13761681695761,Groundnut_data.RData
ALIYARNAGAR_R15,PYPP,0.315549992695917,0.011444342633122,14.0822359471253,1.55073447905984,Groundnut_data.RData
ALIYARNAGAR_R15,SYPP,0.305640735152544,0.016111368925524,5.48512018042005,0.539280436393824,Groundnut_data.RData
ICRISAT_PR15-16,NPP,0.395526559021653,0.07932776027758,16.5399449992346,1.2637108349007,Groundnut_data.RData
ICRISAT_PR15-16,PYPP,0.2504401653875,0.069935634764821,8.87511341103164,0.910168300002912,Groundnut_data.RData
ICRISAT_PR15-16,SYPP,0.272757777617952,0.084874238161034,3.54644770297818,0.342328639948502,Groundnut_data.RData
ICRISAT_R15,NPP,0.620594879852416,0.030609479139813,16.0633167893861,1.63204983761797,Groundnut_data.RData
ICRISAT_R15,PYPP,0.595639289699693,0.032265478496941,10.1864042433197,1.01197096820363,Groundnut_data.RData
ICRISAT_R15,SYPP,0.585817589426657,0.024513511315649,3.86362820932613,0.366050627227167,Groundnut_data.RData
JALGOAN_R15,NPP,0.561967741576035,0.045100393676977,26.1031802278605,2.36807410271585,Groundnut_data.RData
JALGOAN_R15,PYPP,0.46109145785867,0.066196628151314,14.4845503244312,1.51614039616208,Groundnut_data.RData
JALGOAN_R15,SYPP,0.46069314375836,0.060230789584113,5.80769302844151,0.409695257967912,Groundnut_data.RData
Nanchong_2017,HundPW2,0.893195631758666,0.011326267464015,506.001247150145,43.1202594935704,Peanut_Data.RData
Nanchong_2017,PodLength,0.906148077319964,0.010720868174567,3.52617430001014,0.261040388284495,Peanut_Data.RData
Nanchong_2017,PodWidth,0.863231041249577,0.008269108326832,0.702211229257499,0.048617726251023,Peanut_Data.RData
Nanchong_2017,SeedWidth,0.869843781764023,0.012086276911527,0.285897239695515,0.019306550655819,Peanut_Data.RData
Shijiazhuang_2017,HundPW2,0.839813108468426,0.015931013071405,479.381292684252,39.8643336065375,Peanut_Data.RData
Shijiazhuang_2017,PodLength,0.886487444256262,0.014206602237374,5.40719974266676,0.637386703787436,Peanut_Data.RData
Shijiazhuang_2017,PodWidth,0.854426281074995,0.024621715626476,0.990800891872609,0.128515866756606,Peanut_Data.RData
Shijiazhuang_2017,SeedWidth,0.811144708178225,0.016607635474017,0.253413980365057,0.015485880116021,Peanut_Data.RData
Wuhan_2017,HundPW2,0.904125791579079,0.007824408134225,536.606420318215,57.7692973039444,Peanut_Data.RData
Wuhan_2017,PodLength,0.937831531066429,0.003903901143508,2.69225272232551,0.122330269697524,Peanut_Data.RData
Wuhan_2017,PodWidth,0.91430327541051,0.006882237262189,0.569248751397634,0.085808180903754,Peanut_Data.RData
Wuhan_2017,SeedWidth,0.893245139780518,0.010384114569816,0.258532107508456,0.024291628172128,Peanut_Data.RData
Zhanjiang_201701,HundPW2,0.825991385940418,0.019140868090139,414.402716231304,25.187270403915,Peanut_Data.RData
Zhanjiang_201701,PodLength,0.909227690951685,0.01223889762417,3.82382922561709,0.583784767267086,Peanut_Data.RData
Zhanjiang_201701,PodWidth,0.893026502896697,0.010080236487201,0.508225681105547,0.061016271578186,Peanut_Data.RData
Zhanjiang_201701,SeedWidth,0.71695629765544,0.03078741780348,0.298777904091549,0.030240227869953,Peanut_Data.RData
Zhanjiang_201702,HundPW2,0.780484929216566,0.028278546892758,507.879787120455,46.0043125511144,Peanut_Data.RData
Zhanjiang_201702,PodLength,0.918965873724804,0.011022812062354,2.95924916555673,0.240932461834116,Peanut_Data.RData
Zhanjiang_201702,PodWidth,0.912693228944775,0.013401913545784,0.477882951338372,0.06877434450875,Peanut_Data.RData
Zhanjiang_201702,SeedWidth,0.644913815745058,0.034690445098873,0.400728803136326,0.025463565135516,Peanut_Data.RData
