"Env","Trait","Cor_mean","Cor_sd","MSEP_mean","MSEP_sd","dataset"
"Flat5IR","DTHD",0.61061171538468,0.037881801829292,8.44671614817552,1.00648776961315,"Data_EYT_Set_4.RData"
"Flat5IR","DTMT",0.564747970221121,0.0637971569465607,7.88683354079817,1.46206874498422,"Data_EYT_Set_4.RData"
"LHT","DTHD",0.617889913379301,0.0366980558948524,9.23448968128102,0.575177707285739,"Data_EYT_Set_4.RData"
"LHT","DTMT",0.623333913585722,0.0416092425724223,12.1259888295931,1.32337038671135,"Data_EYT_Set_4.RData"
"Bed5IR","DTHD",0.699790543139923,0.0554994216789012,23.5750657971424,4.06862111207806,"Data_EYT_Set_4.RData"
"Bed5IR","DTMT",0.666365071299016,0.0505318210408061,18.0461864815893,3.50031095432009,"Data_EYT_Set_4.RData"
"EHT","DTHD",0.69950846109339,0.0416549433238781,34.5762824346034,4.59727730154555,"Data_EYT_Set_4.RData"
"EHT","DTMT",0.712400586819182,0.0550633037173398,27.4905160993826,2.22479194111579,"Data_EYT_Set_4.RData"
"Flat5IR","DTHD",0.673558029082827,0.0629375269906494,6.22721758343701,0.804925668933946,"Data_EYT_Set_5.RData"
"Flat5IR","DTMT",0.6572129000967,0.0826242330812094,7.45664448419261,1.6017679056585,"Data_EYT_Set_5.RData"
"EHT","DTHD",0.584528222042914,0.0630827212800849,23.179767404805,4.47018054589592,"Data_EYT_Set_5.RData"
"EHT","DTMT",0.607360646478327,0.0484166707981949,16.5429923122058,3.40297659403149,"Data_EYT_Set_5.RData"
"Bed5IR","DTHD",0.673972330416498,0.0356970844647955,12.9697423069937,1.73653162941712,"Data_EYT_Set_5.RData"
"Bed5IR","DTMT",0.72790507796732,0.0173640279685946,9.18740651424954,0.984665006643612,"Data_EYT_Set_5.RData"
"Bed2IR","DTHD",0.731674452286614,0.029730187698166,5.92128348185103,0.434552266811425,"Data_EYT_Set_5.RData"
"Bed2IR","DTMT",0.655974103696729,0.0552216931653826,6.28585638852916,0.85364060917093,"Data_EYT_Set_5.RData"
"LHT","DTHD",0.663863193138159,0.0208016783224013,4.80117069414167,0.799149463016763,"Data_EYT_Set_5.RData"
"LHT","DTMT",0.666463307640282,0.0405799178370385,4.25507059348305,0.59282023895226,"Data_EYT_Set_5.RData"
"Bed5IR","DTHD",0.568703416912794,0.043082194208845,9.69560587523683,0.818618742515796,"Data_EYT_Set_6.RData"
"Bed5IR","DTMT",0.484672238484812,0.0385002026652124,10.020299492614,1.08023278451205,"Data_EYT_Set_6.RData"
"Bed2IR","DTHD",0.744023702898103,0.0259365975690182,4.09903950137253,0.74341030489648,"Data_EYT_Set_6.RData"
"Bed2IR","DTMT",0.691176143572177,0.0379455819087273,4.16164400478568,0.842904163638188,"Data_EYT_Set_6.RData"
"LHT","DTHD",0.576051349508904,0.038680315415321,6.28025270329528,0.447086338893757,"Data_EYT_Set_6.RData"
"LHT","DTMT",0.519357163147255,0.0505633414190285,3.37315178827124,0.420618147336436,"Data_EYT_Set_6.RData"
"FlatDrip","DTHD",0.695059246962083,0.0195756136474724,11.1057868793448,1.69428013009588,"Data_EYT_Set_6.RData"
"FlatDrip","DTMT",0.653722299102675,0.03789060573684,10.2740971801241,0.766074272658788,"Data_EYT_Set_6.RData"
"Flat5IR","DTHD",0.573910259243166,0.0626676677779905,6.6970881782137,0.907700582248879,"Data_EYT_Set_6.RData"
"Flat5IR","DTMT",0.487447267170157,0.0729179162035374,10.6002802714025,1.12173210038595,"Data_EYT_Set_6.RData"
"EHT","DTHD",0.676519061406314,0.0531844218951168,28.2001013208548,2.34671102384859,"Data_EYT_Set_7.RData"
"EHT","DTMT",0.690073373688589,0.0327711898349769,16.2670553299581,0.682776844039354,"Data_EYT_Set_7.RData"
"Flat5IR","DTHD",0.708591167206532,0.0374823943547902,6.75021511662599,0.458841224055361,"Data_EYT_Set_7.RData"
"Flat5IR","DTMT",0.730149588827482,0.0576400935963364,13.652912579328,1.45244078767349,"Data_EYT_Set_7.RData"
"Bed5IR","DTHD",0.724740428775785,0.0253817802729743,15.1486801738811,2.09679576459476,"Data_EYT_Set_7.RData"
"Bed5IR","DTMT",0.742040821305915,0.0164934025497117,13.2951303116942,1.08532506875174,"Data_EYT_Set_7.RData"
"FlatDrip","DTHD",0.696925369129858,0.0611194661406444,9.37183359105097,0.683755270449636,"Data_EYT_Set_7.RData"
"FlatDrip","DTMT",0.687238506247854,0.0637757345673071,8.43652573022906,0.79810069916883,"Data_EYT_Set_7.RData"
"EBU","ASI",0.517013093614969,0.161836427874099,0.376665791065694,0.104835046264494,"Data_Maize_Set_1.RData"
"EBU","Yield",0.331902017107494,0.0932172678798991,0.734634652139713,0.125021639595285,"Data_Maize_Set_1.RData"
"KAK","ASI",0.457402949584196,0.151083112808448,0.807818640658075,0.240299470310229,"Data_Maize_Set_1.RData"
"KAK","Yield",0.497823035509831,0.114445812999527,0.382813547152784,0.0736399618666159,"Data_Maize_Set_1.RData"
"KTI","ASI",0.331918587796493,0.112024452922471,0.595382487286073,0.113143068695388,"Data_Maize_Set_1.RData"
"KTI","Yield",0.464600153245336,0.0678563826053595,0.723841211383284,0.0343128750630568,"Data_Maize_Set_1.RData"
"D","DTH",0.831796421071474,0.0125135382847255,18.2489328616618,29.0473951277554,"Data_Wheat_Iranian_Set_3.RData"
"H","DTH",0.774509309150621,0.0223733739269959,12.2583060284741,22.1167338147007,"Data_Wheat_Iranian_Set_3.RData"
"Bed2IR","DTHD",0.902230811079765,0.0364707625474935,7.66039437608987,33.1628542114553,"Data_Wheat_Set_2.RData"
"Bed5IR","DTHD",0.835553459871959,0.0712284557994794,14.0502075012264,32.6565364824387,"Data_Wheat_Set_2.RData"
"Drip","DTHD",0.923974544251292,0.00769405382135057,3.86102595129299,5.8166514512299,"Data_Wheat_Set_2.RData"
"1","Daysto50Flower",0.846898363273554,0.00463265130201229,9.6974179954266,0.416878504294837,"Chickpea_data.RData"
"1","DaystoMaturity",0.475518740899593,0.0122822598892369,3.16929070294216,0.0615741586359641,"Chickpea_data.RData"
"2","Daysto50Flower",0.69982950672932,0.0178473049990663,123.397223879226,7.50365161877544,"Chickpea_data.RData"
"2","DaystoMaturity",0.203042646612566,0.0233373189815054,15.133623854788,0.381460198376586,"Chickpea_data.RData"
"4","Daysto50Flower",0.750549290613346,0.0140541294057105,14.7119654775859,0.820431811723153,"Chickpea_data.RData"
"4","DaystoMaturity",0.813932818603307,0.00512196614720769,5.5436114660844,0.0957440342208992,"Chickpea_data.RData"
"5","Daysto50Flower",0.622733426559878,0.0134655302311728,7.78887710348166,0.124326214960299,"Chickpea_data.RData"
"5","DaystoMaturity",0.640465944138193,0.00932409531649263,7.09750322255601,0.25983127090228,"Chickpea_data.RData"
"6","Daysto50Flower",0.1461813626188,0.0128053806557103,40.0120388048454,1.29056210937045,"Chickpea_data.RData"
"6","DaystoMaturity",0.273426146380991,0.012023286652309,13.0347394070397,0.305991613950276,"Chickpea_data.RData"
"7","Daysto50Flower",0.663417009321504,0.00652086177840594,20.9836204837672,1.3186204584075,"Chickpea_data.RData"
"7","DaystoMaturity",0.674207732041451,0.0183124485411701,6.47857441719947,0.625071123746549,"Chickpea_data.RData"
